module storeTemp

go 1.17

require (
	github.com/eclipse/paho.mqtt.golang v1.3.5
	github.com/lib/pq v1.10.4
)

require (
	github.com/gorilla/websocket v1.4.2 // indirect
	golang.org/x/net v0.0.0-20200425230154-ff2c4b7c35a0 // indirect
)
